%YAML 1.1
%TAG !u! tag:unity3d.com,2011:
--- !u!114 &11400000
MonoBehaviour:
  m_ObjectHideFlags: 32
  m_CorrespondingSourceObject: {fileID: 0}
  m_PrefabInstance: {fileID: 0}
  m_PrefabAsset: {fileID: 0}
  m_GameObject: {fileID: 0}
  m_Enabled: 1
  m_EditorHideFlags: 0
  m_Script: {fileID: 11500000, guid: 3f149d88d2a29a84d9130308267819c2, type: 3}
  m_Name: MasterManager
  m_EditorClassIdentifier: 
  gameSettings: {fileID: 11400000, guid: b2dd248058975a34fa8bf08a5fdde226, type: 2}
